{
	"name": "app.medstore.storage",
	"dockerComposeFile": [
		"docker-compose.yml"
	],
	"service": "storage",
	"workspaceFolder": "/usr/app",
	"features": {
		"ghcr.io/devcontainers/features/common-utils:2": {
			"installZsh": "true",
			"upgradePackages": "true"
		},
		"ghcr.io/devcontainers/features/git:1": {
			"version": "latest",
			"ppa": "false"
		}
	},
	"customizations": {
		"vscode": {
			"settings": {
				"files.exclude": {
					".devcontainer/pkg_volumes": true,
					"**/*.js.map": true
				}
			},
			"extensions": [
				"dbaeumer.vscode-eslint",
				"firsttris.vscode-jest-runner",
				"editorconfig.editorconfig",
				"mhutchie.git-graph",
				"ms-vsliveshare.vsliveshare",
				"rtbenfield.vscode-jest-test-adapter",
				"dbaeumer.vscode-eslint",
				"esbenp.prettier-vscode"
			]
		}
	},
	"shutdownAction": "stopCompose",
	"remoteUser": "node"
}
